// Deprecated: use github.com/future-architect/future-wru instead
module gitlab.com/osaki-lab/wru

go 1.17

require (
	github.com/Songmu/gocredits v0.2.0 // indirect
	github.com/coreos/go-oidc v2.2.1+incompatible // indirect
	github.com/future-architect/gocloudurls v1.0.4
	github.com/garyburd/go-oauth v0.0.0-20180319155456-bca2e7f09a17
	github.com/go-chi/chi/v5 v5.0.3
	github.com/golang/gddo v0.0.0-20210115222349-20d68f94ee1f
	github.com/google/go-github v17.0.0+incompatible
	github.com/google/go-querystring v1.1.0 // indirect
	github.com/gookit/color v1.4.2
	github.com/kelseyhightower/envconfig v1.4.0
	github.com/mssola/user_agent v0.5.3
	github.com/oschwald/geoip2-golang v1.5.0 // indirect
	github.com/pquerna/cachecontrol v0.1.0 // indirect
	github.com/rs/xid v1.3.0
	github.com/shibukawa/uuid62 v0.0.0-20190628130809-2b77c8679a0f
	github.com/stretchr/testify v1.7.0
	github.com/ymotongpoo/datemaki v0.0.0-20210720235720-959860789111
	gocloud.dev v0.23.0
	gocloud.dev/docstore/mongodocstore v0.23.0
	golang.org/x/oauth2 v0.0.0-20210427180440-81ed05c6b58c
	gopkg.in/square/go-jose.v2 v2.6.0 // indirect
)
